1,Vetrov,TeamLeader,10
2,Ferry,ProjectManager,10
3,Ludwig,SeniorManager,
4,Beethoven,SeniorManager,
5,Tury 1,Programmer,8
6,Tury 2,Programmer,8
7,Tury 3,Programmer,8
8,Tury 4,Programmer,8
9,Tury 5,Programmer,8
10,Tury 6,Programmer,8
11,Tury 7,Programmer,8
12,Tury 8,Programmer,8
13,Fury,Programmer,8
14,Pury,Programmer,8
15,Gury,Programmer,8
16,Hury,Programmer,8
17,Jury,Programmer,8
18,Tury,Programmer,8
19,Kury,Programmer,8
20,Petrov,Tester,7
21,Lury,Tester,7
22,Mury,Tester,7
23,Lester,Tester,7
24,Hester,Tester,7
25,Chester,Tester,7
26,Pester,Tester,7
27,Lester 2,Tester,7
28,Lester 3,Tester,7
29,Lester 4,Tester,7
30,Lester 5,Tester,7
31,Lester 6,Tester,7
32,Lester 7,Tester,7
33,Lester 8,Tester,7
34,Lester 9,Tester,7
35,Lester 10,Tester,7
36,Lester 11,Tester,7
37,Lester 12,Tester,7
38,Lester 13,Tester,7
39,Lester 14,Tester,7
40,Lester 15,Tester,7
41,Lester 16,Tester,7
42,Jerry F,Driver,20
43,Perry G,Cleaner,18
44,Jerry B,Driver,20
45,Perry H,Cleaner,18
46,Jerry N,Driver,20
47,Perry M,Cleaner,18
48,Jerry K,Driver,20
49,Jerry,Driver,18
50,Perry,Cleaner,20
