{"emp":[
{"position":"Programmer","id":1,"project":["sky"],"name":"Antonov","hours":20},
{"position":"TeamLeader","id":2,"project":["sky","star","space","planet"],"name":"Kostrov.A.A","hours":30},
{"position":"Manager","id":3,"project":["sky","space"],"name":"Vasilev","hours":11},
{"position":"Programmer","id":4,"project":["sky"],"name":"Vasileva","hours":13},
{"position":"Programmer","id":5,"project":["sky"],"name":"Volova","hours":14},
{"position":"Cleaner","id":6,"project":["sky","planet","space"],"name":"Glembo","hours":10},
{"position":"Tester","id":7,"project":[],"name":"Grachyova","hours":11},
{"position":"Cleaner","id":8,"project":["sky","planet","space"],"name":"Gunkina","hours":13},
{"position":"Cleaner","id":9,"project":["sky","planet","space"],"name":"Dokuchaeva","hours":31},
{"position":"Tester","id":10,"project":["planet"],"name":"Zelenov.V.EH","hours":21},
{"position":"Tester","id":11,"project":["space"],"name":"Ishmuhametova.EH.I","hours":11},
{"position":"Driver","id":12,"project":["sky","star","space"],"name":"Kalyonova.E.D","hours":35},
{"position":"ProjectManager","id":13,"project":["star"],"name":"Konovalova.A.A","hours":34},
{"position":"Driver","id":14,"project":["sky","star","space"],"name":"Korbej.A.S","hours":33},
{"position":"Cleaner","id":15,"project":["sky","planet","space"],"name":"Krickaya.E.V","hours":32},
{"position":"Driver","id":16,"project":["sky","star","space"],"name":"Kubarev.I.A","hours":31},
{"position":"Cleaner","id":17,"project":["sky","planet","space"],"name":"Kuznicyn.P.O","hours":30},
{"position":"Tester","id":18,"project":["star"],"name":"Matveeva.M.E","hours":29},
{"position":"Manager","id":19,"project":["sky","planet"],"name":"Nopin.D.A","hours":28},
{"position":"Manager","id":20,"project":["sky","space"],"name":"Ochirova.R.O","hours":27},
{"position":"Programmer","id":21,"project":["sky"],"name":"Pegasin.K.I","hours":26},
{"position":"Programmer","id":22,"project":["sky"],"name":"Peskisheva.E.I","hours":25},
{"position":"ProjectManager","id":23,"project":["sky"],"name":"Ponomareva.E.A","hours":24},
{"position":"Cleaner","id":24,"project":["sky","planet","space"],"name":"Puzyrev.D.V","hours":23},
{"position":"Cleaner","id":25,"project":["sky","planet","space"],"name":"Sitdikova.A.R","hours":22},
{"position":"Manager","id":26,"project":["sky"],"name":"Smirnov.A.I","hours":21},
{"position":"Driver","id":27,"project":["sky","star","space"],"name":"Toporkova.M.S","hours":20},
{"position":"Driver","id":28,"project":["sky","star","space"],"name":"Horenko.V.N","hours":19},
{"position":"ProjectManager","id":29,"project":["space"],"name":"CHertov.A.B","hours":18},
{"position":"ProjectManager","id":30,"project":["sky","star","space"],"name":"CHikvashvili.N.D","hours":17},
{"position":"Tester","id":31,"project":["planet"],"name":"SHenker.A.O","hours":16},
{"position":"Driver","id":32,"project":["sky","star","space"],"name":"YAkovleva.U.V","hours":15},
{"position":"ProjectManager","id":33,"project":["sky","star","space"],"name":"Bagdasaryan.G.A","hours":14},
{"position":"ProjectManager","id":34,"project":["space"],"name":"Borisova.A.V","hours":13},
{"position":"ProjectManager","id":35,"project":["sky","star","space"],"name":"Borisyuk.A.A","hours":12},
{"position":"Tester","id":36,"project":["star"],"name":"Butrij.P.V","hours":11},
{"position":"Driver","id":37,"project":["sky","star","space"],"name":"Varaksina.A.G","hours":12},
{"position":"SenjorManager","id":38,"project":["space"],"name":"Vilenskij.S.M","hours":13},
{"position":"Manager","id":39,"project":["space"],"name":"Galimov.T.S","hours":14},
{"position":"Manager","id":40,"project":["sky","planet"],"name":"Davydova.S.M","hours":15},
{"position":"Tester","id":41,"project":[],"name":"Dementev.I.A","hours":16},
{"position":"ProjectManager","id":42,"project":["sky","star","space"],"name":"Ivashkova.V.A","hours":17},
{"position":"Driver","id":43,"project":["sky","star"],"name":"Kazinina.P.A","hours":18},
{"position":"Tester","id":44,"project":["sky","star","space"],"name":"Kim.A.P","hours":19},
{"position":"Driver","id":45,"project":["sky","star","space"],"name":"Kotlikova.A.B","hours":20},
{"position":"Programmer","id":46,"project":["sky"],"name":"Kuznecova.M.E","hours":21},
{"position":"Driver","id":47,"project":["sky","star","space"],"name":"Legkostupova.T.I","hours":22},
{"position":"SenjorManager","id":48,"project":["star"],"name":"Lengele.B.D","hours":23},
{"position":"Programmer","id":49,"project":["sky"],"name":"Malkov.N.S","hours":24},
{"position":"Cleaner","id":50,"project":[],"name":"Matyushina.A.D","hours":25},
{"position":"Programmer","id":51,"project":["sky"],"name":"Milomaeva.E.A","hours":26},
{"position":"ProjectManager","id":52,"project":["sky"],"name":"Petruhin.F.N","hours":27},
{"position":"TeamLeader","id":53,"project":["sky"],"name":"Pilyugin.D.I","hours":28},
{"position":"ProjectManager","id":54,"project":["sky","star","space"],"name":"Rojko.S.A","hours":29},
{"position":"Cleaner","id":55,"project":[],"name":"Rusov.M.A","hours":30},
{"position":"TeamLeader","id":56,"project":["space"],"name":"Sasova.K.O","hours":31},
{"position":"Driver","id":57,"project":["sky","star","space"],"name":"Sverkunova.A.A","hours":32},
{"position":"Tester","id":58,"project":["sky","planet","space"],"name":"Sevostyanov.A.V","hours":33},
{"position":"Manager","id":59,"project":["sky","star"],"name":"Skvorcova.E.V","hours":34},
{"position":"Cleaner","id":60,"project":["sky","planet","space"],"name":"Strekneva.U.D","hours":35},
{"position":"SenjorManager","id":61,"project":["sky","planet"],"name":"Baranova.N.A","hours":36},
{"position":"ProjectManager","id":62,"project":["sky","star","space"],"name":"Habirzyanova.A.F","hours":37},
{"position":"Cleaner","id":63,"project":[],"name":"YAroshenko.D.D","hours":38},
{"position":"Driver","id":64,"project":[],"name":"YAtcheni.M.A","hours":39}
]}